{
	"info": {
		"_postman_id": "6bc6fe06-33c6-4510-b2d2-fa3d8a68bbcc",
		"name": "numis-matters",
		"schema": "https://schema.getpostman.com/json/collection/v2.1.0/collection.json"
	},
	"item": [
		{
			"name": "api/game",
			"item": [
				{
					"name": "add game",
					"request": {
						"method": "POST",
						"header": [
							{
								"key": "Content-Type",
								"value": "application/x-www-form-urlencoded"
							}
						],
						"body": {
							"mode": "raw",
							"raw": ""
						},
						"url": {
							"raw": "http://localhost:{{PORT}}/api/game",
							"protocol": "http",
							"host": [
								"localhost"
							],
							"port": "{{PORT}}",
							"path": [
								"api",
								"game"
							]
						}
					},
					"response": []
				},
				{
					"name": "default game",
					"request": {
						"method": "GET",
						"header": [],
						"body": {
							"mode": "raw",
							"raw": ""
						},
						"url": {
							"raw": "http://localhost:{{PORT}}/api/game/default",
							"protocol": "http",
							"host": [
								"localhost"
							],
							"port": "{{PORT}}",
							"path": [
								"api",
								"game",
								"default"
							]
						}
					},
					"response": []
				},
				{
					"name": "all games",
					"request": {
						"method": "GET",
						"header": [],
						"body": {
							"mode": "raw",
							"raw": ""
						},
						"url": {
							"raw": "http://localhost:{{PORT}}/api/game/all",
							"protocol": "http",
							"host": [
								"localhost"
							],
							"port": "{{PORT}}",
							"path": [
								"api",
								"game",
								"all"
							]
						}
					},
					"response": []
				},
				{
					"name": "game by id",
					"event": [
						{
							"listen": "prerequest",
							"script": {
								"id": "1df19fd6-049e-4891-91d6-dea38e9190fc",
								"exec": [
									"",
									""
								],
								"type": "text/javascript"
							}
						}
					],
					"request": {
						"method": "GET",
						"header": [],
						"body": {
							"mode": "raw",
							"raw": ""
						},
						"url": {
							"raw": "http://localhost:{{PORT}}/api/game/:id/",
							"protocol": "http",
							"host": [
								"localhost"
							],
							"port": "{{PORT}}",
							"path": [
								"api",
								"game",
								":id",
								""
							],
							"query": [
								{
									"key": "",
									"value": ""
								}
							],
							"variable": [
								{
									"key": "id",
									"value": "1"
								}
							]
						}
					},
					"response": []
				},
				{
					"name": "players in game",
					"request": {
						"method": "GET",
						"header": [],
						"body": {
							"mode": "raw",
							"raw": ""
						},
						"url": {
							"raw": "http://localhost:{{PORT}}/api/game/:id/players",
							"protocol": "http",
							"host": [
								"localhost"
							],
							"port": "{{PORT}}",
							"path": [
								"api",
								"game",
								":id",
								"players"
							],
							"variable": [
								{
									"key": "id",
									"value": "1"
								}
							]
						}
					},
					"response": []
				},
				{
					"name": "add player",
					"request": {
						"method": "PUT",
						"header": [
							{
								"key": "Content-Type",
								"value": "application/x-www-form-urlencoded"
							}
						],
						"body": {
							"mode": "urlencoded",
							"urlencoded": [
								{
									"key": "playerId",
									"value": "1",
									"type": "text"
								}
							]
						},
						"url": {
							"raw": "http://localhost:{{PORT}}/api/game/:id/player/:playerId",
							"protocol": "http",
							"host": [
								"localhost"
							],
							"port": "{{PORT}}",
							"path": [
								"api",
								"game",
								":id",
								"player",
								":playerId"
							],
							"variable": [
								{
									"key": "id",
									"value": "557a0ab1-9b26-4446-97b9-d8be1ce473ed"
								},
								{
									"key": "playerId",
									"value": "1c8f1c9d-13ed-4202-94fb-3c4ae45fb54c"
								}
							]
						}
					},
					"response": []
				},
				{
					"name": "add all players",
					"request": {
						"method": "PUT",
						"header": [
							{
								"key": "Content-Type",
								"name": "Content-Type",
								"type": "text",
								"value": "application/x-www-form-urlencoded"
							}
						],
						"body": {
							"mode": "urlencoded",
							"urlencoded": [
								{
									"key": "id",
									"value": "0",
									"type": "text"
								}
							]
						},
						"url": {
							"raw": "http://localhost:{{PORT}}/api/game/:id/player/all",
							"protocol": "http",
							"host": [
								"localhost"
							],
							"port": "{{PORT}}",
							"path": [
								"api",
								"game",
								":id",
								"player",
								"all"
							],
							"variable": [
								{
									"key": "id",
									"value": "1"
								}
							]
						}
					},
					"response": []
				},
				{
					"name": "update by id",
					"request": {
						"method": "PUT",
						"header": [
							{
								"key": "Content-Type",
								"value": "application/x-www-form-urlencoded"
							}
						],
						"body": {
							"mode": "urlencoded",
							"urlencoded": [
								{
									"key": "difficulty",
									"value": "2",
									"type": "text"
								},
								{
									"key": "rounds",
									"value": "6",
									"type": "text"
								}
							]
						},
						"url": {
							"raw": "http://localhost:{{PORT}}/api/game/:id",
							"protocol": "http",
							"host": [
								"localhost"
							],
							"port": "{{PORT}}",
							"path": [
								"api",
								"game",
								":id"
							],
							"variable": [
								{
									"key": "id",
									"value": "1"
								}
							]
						}
					},
					"response": []
				},
				{
					"name": "remove by id",
					"request": {
						"method": "DELETE",
						"header": [],
						"body": {
							"mode": "raw",
							"raw": ""
						},
						"url": {
							"raw": "http://localhost:{{PORT}}/api/game/:id/remove",
							"protocol": "http",
							"host": [
								"localhost"
							],
							"port": "{{PORT}}",
							"path": [
								"api",
								"game",
								":id",
								"remove"
							],
							"variable": [
								{
									"key": "id",
									"value": "1"
								}
							]
						}
					},
					"response": []
				},
				{
					"name": "remove all",
					"request": {
						"method": "DELETE",
						"header": [
							{
								"key": "Content-Type",
								"value": "application/x-www-form-urlencoded"
							}
						],
						"body": {
							"mode": "raw",
							"raw": ""
						},
						"url": {
							"raw": "http://localhost:{{PORT}}/api/game/all",
							"protocol": "http",
							"host": [
								"localhost"
							],
							"port": "{{PORT}}",
							"path": [
								"api",
								"game",
								"all"
							]
						}
					},
					"response": []
				}
			],
			"event": [
				{
					"listen": "prerequest",
					"script": {
						"id": "f6f49d35-bac5-4c63-a077-9a5511c4d71d",
						"type": "text/javascript",
						"exec": [
							""
						]
					}
				},
				{
					"listen": "test",
					"script": {
						"id": "2e2c9550-033c-4f4d-a5d7-916f06419be1",
						"type": "text/javascript",
						"exec": [
							""
						]
					}
				}
			]
		},
		{
			"name": "api/player",
			"item": [
				{
					"name": "createPlayer",
					"request": {
						"method": "POST",
						"header": [
							{
								"key": "Content-Type",
								"value": "application/x-www-form-urlencoded"
							}
						],
						"body": {
							"mode": "urlencoded",
							"urlencoded": [
								{
									"key": "firstName",
									"value": "First Name",
									"type": "text"
								},
								{
									"key": "lastName",
									"value": "Last Name",
									"type": "text"
								},
								{
									"key": "grade",
									"value": "0",
									"type": "text"
								},
								{
									"key": "age",
									"value": "0",
									"type": "text"
								}
							]
						},
						"url": {
							"raw": "http://localhost:{{PORT}}/api/player",
							"protocol": "http",
							"host": [
								"localhost"
							],
							"port": "{{PORT}}",
							"path": [
								"api",
								"player"
							]
						}
					},
					"response": []
				},
				{
					"name": "all players",
					"request": {
						"method": "GET",
						"header": [
							{
								"key": "Content-Type",
								"value": "application/x-www-form-urlencoded",
								"disabled": true
							}
						],
						"body": {
							"mode": "raw",
							"raw": ""
						},
						"url": {
							"raw": "http://localhost:{{PORT}}/api/player/all",
							"protocol": "http",
							"host": [
								"localhost"
							],
							"port": "{{PORT}}",
							"path": [
								"api",
								"player",
								"all"
							]
						}
					},
					"response": []
				},
				{
					"name": "player by id",
					"request": {
						"method": "GET",
						"header": [],
						"body": {
							"mode": "raw",
							"raw": ""
						},
						"url": {
							"raw": "http://localhost:{{PORT}}/api/player/:id",
							"protocol": "http",
							"host": [
								"localhost"
							],
							"port": "{{PORT}}",
							"path": [
								"api",
								"player",
								":id"
							],
							"variable": [
								{
									"key": "id",
									"value": "1"
								}
							]
						}
					},
					"response": []
				},
				{
					"name": "update by id",
					"request": {
						"method": "PUT",
						"header": [
							{
								"key": "Content-Type",
								"name": "Content-Type",
								"type": "text",
								"value": "application/x-www-form-urlencoded"
							}
						],
						"body": {
							"mode": "urlencoded",
							"urlencoded": [
								{
									"key": "firstName",
									"value": "Updated Name 2",
									"type": "text"
								}
							]
						},
						"url": {
							"raw": "http://localhost:{{PORT}}/api/player/:id",
							"protocol": "http",
							"host": [
								"localhost"
							],
							"port": "{{PORT}}",
							"path": [
								"api",
								"player",
								":id"
							],
							"variable": [
								{
									"key": "id",
									"value": "1"
								}
							]
						}
					},
					"response": []
				},
				{
					"name": "remove by id",
					"request": {
						"method": "DELETE",
						"header": [],
						"body": {
							"mode": "raw",
							"raw": ""
						},
						"url": {
							"raw": "http://localhost:{{PORT}}/api/player/:id",
							"protocol": "http",
							"host": [
								"localhost"
							],
							"port": "{{PORT}}",
							"path": [
								"api",
								"player",
								":id"
							],
							"variable": [
								{
									"key": "id",
									"value": "1"
								}
							]
						}
					},
					"response": []
				},
				{
					"name": "remove all",
					"request": {
						"method": "DELETE",
						"header": [],
						"body": {
							"mode": "raw",
							"raw": ""
						},
						"url": {
							"raw": "http://localhost:{{PORT}}/api/player/all",
							"protocol": "http",
							"host": [
								"localhost"
							],
							"port": "{{PORT}}",
							"path": [
								"api",
								"player",
								"all"
							]
						}
					},
					"response": []
				}
			],
			"event": [
				{
					"listen": "prerequest",
					"script": {
						"id": "edeea6a3-4208-4fc7-8ba9-aacd692dc6f8",
						"type": "text/javascript",
						"exec": [
							""
						]
					}
				},
				{
					"listen": "test",
					"script": {
						"id": "78732592-313b-45e9-abed-b57f7296d551",
						"type": "text/javascript",
						"exec": [
							""
						]
					}
				}
			]
		},
		{
			"name": "api/bank",
			"item": [
				{
					"name": "deposit",
					"request": {
						"method": "POST",
						"header": [
							{
								"key": "Content-Type",
								"value": "application/x-www-form-urlencoded"
							}
						],
						"body": {
							"mode": "urlencoded",
							"urlencoded": [
								{
									"key": "amount",
									"value": "40000",
									"type": "text"
								},
								{
									"key": "method",
									"value": "Credit",
									"description": "Cash, Credit, Debit",
									"type": "text"
								}
							]
						},
						"url": {
							"raw": "http://localhost:{{PORT}}/api/bank/:id/deposit/:playerId",
							"protocol": "http",
							"host": [
								"localhost"
							],
							"port": "{{PORT}}",
							"path": [
								"api",
								"bank",
								":id",
								"deposit",
								":playerId"
							],
							"variable": [
								{
									"key": "id",
									"value": ""
								},
								{
									"key": "playerId",
									"value": "c2dd811a-91e0-42fb-825b-901c3207908c"
								}
							]
						}
					},
					"response": []
				},
				{
					"name": "withdrawal",
					"request": {
						"method": "POST",
						"header": [
							{
								"key": "Content-Type",
								"value": "application/x-www-form-urlencoded"
							}
						],
						"body": {
							"mode": "urlencoded",
							"urlencoded": [
								{
									"key": "amount",
									"value": "200",
									"type": "text"
								},
								{
									"key": "method",
									"value": "Credit",
									"description": "Cash, Credit, Debit",
									"type": "text"
								}
							]
						},
						"url": {
							"raw": "http://localhost:{{PORT}}/api/bank/:gameId/withdrawal/:playerId",
							"protocol": "http",
							"host": [
								"localhost"
							],
							"port": "{{PORT}}",
							"path": [
								"api",
								"bank",
								":gameId",
								"withdrawal",
								":playerId"
							],
							"variable": [
								{
									"key": "gameId",
									"value": "2f80dff3-d129-4f7b-9261-9825b220bf67"
								},
								{
									"key": "playerId",
									"value": "c2dd811a-91e0-42fb-825b-901c3207908c"
								}
							]
						}
					},
					"response": []
				},
				{
					"name": "cash balance",
					"request": {
						"method": "GET",
						"header": [],
						"body": {
							"mode": "raw",
							"raw": ""
						},
						"url": {
							"raw": "http://localhost:{{PORT}}/api/bank/:gameId/cash/:playerId",
							"protocol": "http",
							"host": [
								"localhost"
							],
							"port": "{{PORT}}",
							"path": [
								"api",
								"bank",
								":gameId",
								"cash",
								":playerId"
							],
							"variable": [
								{
									"key": "gameId",
									"value": "2f80dff3-d129-4f7b-9261-9825b220bf67"
								},
								{
									"key": "playerId",
									"value": "1"
								}
							]
						}
					},
					"response": []
				},
				{
					"name": "credit balance",
					"request": {
						"method": "GET",
						"header": [],
						"body": {
							"mode": "raw",
							"raw": ""
						},
						"url": {
							"raw": "http://localhost:{{PORT}}/api/bank/:gameId/credit/:playerId",
							"protocol": "http",
							"host": [
								"localhost"
							],
							"port": "{{PORT}}",
							"path": [
								"api",
								"bank",
								":gameId",
								"credit",
								":playerId"
							],
							"variable": [
								{
									"key": "gameId",
									"value": "2f80dff3-d129-4f7b-9261-9825b220bf67"
								},
								{
									"key": "playerId",
									"value": "c2dd811a-91e0-42fb-825b-901c3207908c"
								}
							]
						}
					},
					"response": []
				},
				{
					"name": "debit balance",
					"request": {
						"method": "GET",
						"header": [],
						"body": {
							"mode": "raw",
							"raw": ""
						},
						"url": {
							"raw": "http://localhost:{{PORT}}/api/bank/:gameId/debit/:playerId",
							"protocol": "http",
							"host": [
								"localhost"
							],
							"port": "{{PORT}}",
							"path": [
								"api",
								"bank",
								":gameId",
								"debit",
								":playerId"
							],
							"variable": [
								{
									"key": "gameId",
									"value": "2f80dff3-d129-4f7b-9261-9825b220bf67"
								},
								{
									"key": "playerId",
									"value": "c2dd811a-91e0-42fb-825b-901c3207908c"
								}
							]
						}
					},
					"response": []
				},
				{
					"name": "all transactions",
					"protocolProfileBehavior": {
						"disableBodyPruning": true
					},
					"request": {
						"method": "GET",
						"header": [
							{
								"key": "Content-Type",
								"name": "Content-Type",
								"type": "text",
								"value": "application/x-www-form-urlencoded"
							}
						],
						"body": {
							"mode": "urlencoded",
							"urlencoded": [
								{
									"key": "method",
									"value": "Debit",
									"description": "Cash, Credit, Debit",
									"type": "text"
								}
							]
						},
						"url": {
							"raw": "http://localhost:{{PORT}}/api/bank/history",
							"protocol": "http",
							"host": [
								"localhost"
							],
							"port": "{{PORT}}",
							"path": [
								"api",
								"bank",
								"history"
							]
						}
					},
					"response": []
				},
				{
					"name": "transactions for game",
					"request": {
						"method": "GET",
						"header": [],
						"body": {
							"mode": "raw",
							"raw": ""
						},
						"url": {
							"raw": "http://localhost:{{PORT}}/api/bank/:gameId/history",
							"protocol": "http",
							"host": [
								"localhost"
							],
							"port": "{{PORT}}",
							"path": [
								"api",
								"bank",
								":gameId",
								"history"
							],
							"variable": [
								{
									"key": "gameId",
									"value": "2f80dff3-d129-4f7b-9261-9825b220bf67"
								}
							]
						}
					},
					"response": []
				},
				{
					"name": "transactions for player",
					"request": {
						"method": "GET",
						"header": [],
						"body": {
							"mode": "raw",
							"raw": ""
						},
						"url": {
							"raw": "http://localhost:{{PORT}}/api/bank/history/:playerId",
							"protocol": "http",
							"host": [
								"localhost"
							],
							"port": "{{PORT}}",
							"path": [
								"api",
								"bank",
								"history",
								":playerId"
							],
							"variable": [
								{
									"key": "playerId",
									"value": "c2dd811a-91e0-42fb-825b-901c3207908c"
								}
							]
						}
					},
					"response": []
				},
				{
					"name": "transactions for game & player",
					"request": {
						"method": "GET",
						"header": [],
						"body": {
							"mode": "raw",
							"raw": ""
						},
						"url": {
							"raw": "http://localhost:{{PORT}}/api/bank/:gameId/history/:playerId",
							"protocol": "http",
							"host": [
								"localhost"
							],
							"port": "{{PORT}}",
							"path": [
								"api",
								"bank",
								":gameId",
								"history",
								":playerId"
							],
							"variable": [
								{
									"key": "gameId",
									"value": "2f80dff3-d129-4f7b-9261-9825b220bf67"
								},
								{
									"key": "playerId",
									"value": "c2dd811a-91e0-42fb-825b-901c3207908c"
								}
							]
						}
					},
					"response": []
				},
				{
					"name": "update transaction",
					"request": {
						"method": "PUT",
						"header": [
							{
								"key": "Content-Type",
								"value": "application/x-www-form-urlencoded"
							}
						],
						"body": {
							"mode": "urlencoded",
							"urlencoded": [
								{
									"key": "amount",
									"value": "4000",
									"type": "text"
								}
							]
						},
						"url": {
							"raw": "http://localhost:{{PORT}}/api/bank/update/:id",
							"protocol": "http",
							"host": [
								"localhost"
							],
							"port": "{{PORT}}",
							"path": [
								"api",
								"bank",
								"update",
								":id"
							],
							"variable": [
								{
									"key": "id",
									"value": "1"
								}
							]
						}
					},
					"response": []
				}
			]
		}
	]
}